-280 -8 -120 -32 104 -288 -88 16
-496 -440 -8 -24
-200 40 -384 -280 -56
-760 112 -80 16
-256 -304 -136 -120 80 -8 -40
-456 -200 -152 -16 -8 32 -80
-352 -160 -248 -24 48 -24 -16 64
-120 -8 304 -328 -200
-712 -56 24 -24 -48 88
-56 -536 -56 -56 48 -16 32 -136
-144 152 -312 -56 -24 -24 80 -144
112 -224 -320 -240 -48 8
-288 -496 88 -16 -72
-464 -56 -152 -152 16 -32 32 -16 8
-168 -8 -608 -48 -16 -80 16
